:020000040000FA
:1000000018F09FE518F09FE518F09FE518F09FE5C0
:1000100018F09FE50000A0E1F0FF1FE518F09FE554
:1000200058000000400000004400000048000000AC
:100030004C000000000000005000000054000000D0
:10004000FEFFFFEAFEFFFFEAFEFFFFEAFEFFFFEA18
:10005000FEFFFFEAFEFFFFEAA0009FE5AA10A0E373
:100060005520A0E32430A0E3043080E50130A0E374
:10007000003080E50C1080E50C2080E5083090E52C
:10008000013B13E2FCFFFF0A0330A0E3003080E5F0
:100090000C1080E50C2080E564009FE50410A0E3CF
:1000A000041080E50210A0E3001080E554009FE5F5
:1000B000DBF021E300D0A0E1000040E2D7F021E333
:1000C00000D0A0E1000040E2D1F021E300D0A0E1A7
:1000D000000040E2D2F021E300D0A0E1800040E245
:1000E000D3F021E300D0A0E1080040E210F021E3CA
:1000F00000D0A0E101AB4DE20C009FE510FF2FE125
:1001000080C01FE000C01FE0280500401001000073
:10011000000000EB2E0000EB2C008FE2000C90E8BA
:1001200000A08AE000B08BE001704AE20B005AE1C7
:100130000000001A260000EB0F00BAE818E04FE2BA
:10014000010013E303F0471013FF2FE1C007000085
:10015000E0070000102052E27800B0287800A128C3
:10016000FBFFFF8A822EB0E13000B0283000A128CA
:1001700000409045004081451EFF2FE10030B0E374
:100180000040B0E30050B0E30060B0E3102052E262
:100190007800A128FCFFFF8A822EB0E13000A12860
:1001A000003081451EFF2FE101C08FE21CFF2FE1CF
:1001B0001FB5059886460FBC009C02B07047000032
:1001C00001C08FE21CFF2FE130B47546AE4630BC53
:1001D00070470000A80100EB0210A0E1F1FFFFEB67
:1001E0001CC09FE50FC08CE001001CE30DE08F12E6
:1001F0000FE0A0011CFF2FE101C08FE21CFF2FE1E7
:1002000000F06CFB300200007847C04603002DE987
:10021000EAFFFFEB0300BDE8B50100EB0C009FE532
:100220000C109FE504209FE508309FE51EFF2FE19D
:10023000A0000040A0040040A000004030002DE9D4
:100240000020A0E10000A0E301C0A0E30030A0E393
:100250000000A0E10310D2E700005CE30200000A06
:1002600001005CE31E00001A0D0000EA0000A0E19E
:10027000030050E30100001A3000BDE81EFF2FE12B
:10028000000051E30000001AFAFFFFEA200051E3EA
:100290000100000A00C0A0E3000000EA01C0A0E3E2
:1002A0000F0000EA0000A0E1000051E30000001A86
:1002B000F0FFFFEA200051E30100001A01C0A0E3B3
:1002C000060000EA00C0A0E3034082E02C529FE554
:1002D000805185E0044085E5014080E2FF0004E2B2
:1002E0000000A0E10000A0E1014083E2FF3004E251
:1002F000D7FFFFEA70402DE90050A0E10160A0E1C6
:100300000040A0E3100000EA841084E0F0219FE5A3
:10031000011182E0010081E20510A0E1A50000EBDF
:10032000010050E30600001A840084E0D0119FE52C
:100330000001D1E70000C6E50000A0E37040BDE881
:100340001EFF2FE1010084E2FF4000E2030054E3BE
:10035000ECFFFFBA0100A0E3F7FFFFEA7C402DE9C4
:100360000050A0E3190000EA90019FE5854180E07C
:1003700004108DE2040094E5DE0000EB000050E381
:100380000400001A0100A0E30000C4E504009DE59C
:10039000040084E50B0000EA0D10A0E1040094E5E0
:1003A000D3FFFFEB000050E30400001A0000A0E3BD
:1003B0000000C4E50000DDE50400C4E5010000EA3A
:1003C0000200A0E30000C4E5010085E2FF5000E266
:1003D00030019FE50000D0E5000055E1E1FFFFBAE4
:1003E0007C40BDE81EFF2FE110402DE90040A0E158
:1003F0000400A0E190FFFFEB08119FE50000C1E5BC
:100400000020A0E32010A0E30400A0E1900000EB96
:10041000D1FFFFEB1040BDE81EFF2FE130402DE97A
:1004200034D04DE21820A0E3DC108FE218008DE2FA
:10043000F60000EB1820A0E3CC108FE20D00A0E145
:10044000F20000EBC0008FE27BFFFFEBB4109FE5F2
:100450000000C1E5C8008FE277FFFFEBA4109FE525
:100460000000C1E5C0008FE273FFFFEB94109FE531
:100470000000C1E5C8008FE26FFFFFEB84109FE52D
:100480000000C1E5D8008FE26BFFFFEB74109FE521
:100490000000C1E530108DE2DC008FE294FFFFEB3D
:1004A0000040A0E130108DE2AC008FE290FFFFEB46
:1004B0000050A0E118008DE25FFFFFEB44109FE5C4
:1004C0000000C1E50020A0E32010A0E318008DE2A9
:1004D0005F0000EBA0FFFFEB0000A0E10000A0E147
:1004E0000D00A0E1BFFFFFEB0000A0E10000A0E1D4
:1004F0000000A0E334D08DE23040BDE81EFF2FE1C4
:1005000028000040000000402400004030783333D1
:100510003433204142444344454647482072657382
:1005200065740000202020200000000020202030E2
:1005300078333334332041424443444546474820CE
:10054000000000003078333334332020204142440F
:10055000434445464748202020202020726573658B
:100560007400000030783333343320414244432058
:100570004445464748207265736574006A616B693B
:10058000730000000020A0E10000A0E3030000EAE7
:100590000030D2E70030C1E7013080E2FF0003E223
:1005A0000030D2E7000053E3F8FFFF1A0030D2E733
:1005B0000030C1E71EFF2FE10020A0E10130A0E1E3
:1005C0000010A0E3070000EA0100D2E701C0D3E772
:1005D0000C0050E10100000A0000A0E31EFF2FE123
:1005E000010081E2FF1000E20100D2E7000050E3C9
:1005F000F4FFFF1A0100D2E701C0D3E70C0050E17D
:100600000100000A0000A0E3F3FFFFEA0100A0E3FD
:10061000F1FFFFEA70402DE90060A0E10140A0E198
:100620000050A0E3020000EA0000A0E1010085E222
:10063000FF5000E20500D4E7000050E3F9FFFF1A85
:10064000051084E00600A0E1CDFFFFEB7040BDE89F
:100650001EFF2FE10130A0E10010A0E3050000EA39
:1006600001C0D0E703005CE10000001A0120C0E7F0
:1006700001C081E2FF100CE201C0D0E700005CE3A2
:10068000F6FFFF1A1EFF2FE104402DE50030A0E128
:1006900030C0A0E300C0C1E578C0A0E301C0C1E55F
:1006A00000C0A0E306C0C1E50000A0E30D0000EA21
:1006B00000C1A0E133CCA0E10F200CE20A0052E31C
:1006C000030000AA30C082E2054060E204C0C1E736
:1006D000020000EA37C082E2054060E204C0C1E7E0
:1006E00001C080E2FF000CE2040050E3EFFFFFBA1C
:1006F00004409DE41EFF2FE10030A0E10120A0E1B5
:100700000000A0E3000082E50000D3E5300050E3E4
:100710000500001A0100D3E5780050E30200001A3A
:100720000200D3E5000050E30100001A0100A0E33D
:100730001EFF2FE102C0A0E3200000EA0C10D3E767
:10074000000051E30100001A0000A0E3F7FFFFEAF8
:1007500006005CE30100001A0100A0E3F3FFFFEADA
:10076000000092E50002A0E1000082E5390051E3BB
:10077000040000CA300051E3020000BA300041E238
:10078000FF1000E2080000EA460051E3040000CA3E
:10079000410051E3020000BA370041E2FF1000E2DD
:1007A000010000EA0100A0E3E0FFFFEA000092E59B
:1007B000010080E1000082E501008CE2FFC000E260
:1007C00007005CE3DCFFFFBA0100A0E3D7FFFFEA0C
:1007D00070402DE90060A0E10140A0E10050A0E3DD
:1007E000020000EA0000A0E1010085E2FF5000E203
:1007F0000500D4E7000050E3F9FFFF1A051084E07C
:100800000600A0E19FFFFFEB7040BDE81EFF2FE157
:1008100010402DE9202052E20500003A1850B1E8BE
:10082000202052E21850A0E81850B1E81850A0E873
:10083000F9FFFF2A02CEB0E11850B1281850A028C5
:100840001800B1481800A0481040BDE802CFB0E140
:1008500004309124043080241EFF2F01822FB0E148
:10086000B230D1200120D144B230C0200120C04498
:100870001EFF2FE170477047704700000E50A0E147
:10088000180000EB05E0A0E10050B0E10D10A0E180
:100890000A30A0E10700C0E300D0A0E160D08DE203
:1008A00020402DE95CFEFFEB2040BDE80060A0E3A6
:1008B0000070A0E30080A0E300B0A0E30710C1E354
:1008C00005C0A0E1C009ACE8C009ACE8C009ACE8CB
:1008D000C009ACE801D0A0E11EFF2FE10400C04632
:1008E000C0462000FFF790FC00009FE51EFF2FE1AF
:1008F0004000004001C08FE21CFF2FE10149182099
:10090000ABDFFEE7260002001EFF2FE12C090000EE
:1009100000000040280000005401000054090000BD
:1009200028000040000500007C0100000272657391
:100930006574000000000000006C6F61640000003E
:10094000000000000173746F726500000000000079
:0409500000000000A3
:0400000500000110E6
:00000001FF
